"TV AERIAL","Repair","AERIAL"
"AMPLIFIER","Repair","Brown Goods"
"AUDIO","Repair","Brown Goods"
"AUDIO / DOCKING STATION","Repair","Brown Goods"
"COFFEE MACHINE","Repair","Brown Goods"
"DIGIBOX","Repair","Brown Goods"
"DIGITAL CAMCORDER","Repair","Brown Goods"
"DIGITAL PHOTO FRAME","Repair","Brown Goods"
"DIGITAL SLR CAMERA","Repair","Brown Goods"
"DIGITAL STILLS CAMERA","Repair","Brown Goods"
"DISHWASHER","Repair","Brown Goods"
"DVD/BLU RAY","Repair","Brown Goods"
"DVD/HDD","Repair","Brown Goods"
"DVD/VCR","Repair","Brown Goods"
"GAMES CONSOLE","Repair","Brown Goods"
"HOME CINEMA","Repair","Brown Goods"
"LCD PROJECTOR","Repair","Brown Goods"
"LCD TV <32inch","Repair","Brown Goods"
"LCD TV 32INCH","Repair","Brown Goods"
"LCD TV/DVD COMBI <32INCH","Repair","Brown Goods"
"LCD TV/DVD COMBI 32INCH+","Repair","Brown Goods"
"LCD/PLASMA TV 33-46INCH","Repair","Brown Goods"
"LCD/PLASMA TV 47INCH+","Repair","Brown Goods"
"LCD/PLASMA TV 33-41INCH","Repair","Brown Goods"
"LCD/PLASMA TV 42INCH+","Repair","Brown Goods"
"MICROWAVE","Repair","Brown Goods"
"MP3","Repair","Brown Goods"
"PROJECTION TV","Repair","Brown Goods"
"PVR","Repair","Brown Goods"
"SATELLITE SYSTEM","Repair","Brown Goods"
"TABLET","Repair","Brown Goods"
"WIRELESS DONGLE","Repair","Brown Goods"
"LAPTOP","Repair","COMPUTER"
"PC","Repair","COMPUTER"
"COOKER","Repair","White Goods"
"FRIDGE","Repair","White Goods"
"FRIDGE/FREEZER","Repair","White Goods"
"WHITE GOODS","Repair","White Goods"
"SATELLITE SYSTEM","Installation","AERIAL"
"TV AERIAL","Installation","AERIAL"
"BASIC","Installation","Brown Goods"
"HOME CINEMA","Installation","Brown Goods"
"PROJECTOR","Installation","Brown Goods"
"WALL MOUNT <32inch","Installation","Brown Goods"
"WALL MOUNT 32inch-55inch","Installation","Brown Goods"
"WALL MOUNT 60inch+","Installation","Brown Goods"
"PC","Installation","COMPUTER"
"COOKER","Installation","White Goods"
"DISHWASHER","Installation","White Goods"
"FREEZER","Installation","White Goods"
"FRIDGE","Installation","White Goods"
"FRIDGE/FREEZER","Installation","White Goods"
"DIGITAL READY CHECK","In-home Service","Brown Goods"
"INSPECTION","In-home Service","Brown Goods"
"TROUBLESHOOTING","In-home Service","Brown Goods"
"TUTORIAL","In-home Service","Brown Goods"