{
  "name": "Example deliveries",
  "driversSpeedPercent": 100,
  "loadUnitType": "Goods",
  "orders": [{
    "name": "Nelson Torgersen",
    "loadUnits": 1,
    "serviceTimeMin": 2,
    "location": {
      "address": "43534 Kirkland Ave, Lancaster, CA 93535, USA"
    },
    "timeWindows": [{
      "startMin": 510,
      "stopMin": 1980
    }]
  }, {
    "name": "Jamie Rozman",
    "loadUnits": 2,
    "serviceTimeMin": 2,
    "location": {
      "address": "1027 W Newgrove St, Lancaster, CA 93534, USA"
    },
    "timeWindows": [{
      "startMin": 375,
      "stopMin": 1820
    }]
  }, {
    "name": "Jessie Blewett",
    "loadUnits": 2,
    "serviceTimeMin": 2,
    "location": {
      "address": "1235 W Kettering St, Lancaster, CA 93534, USA"
    },
    "timeWindows": [{
      "startMin": 510,
      "stopMin": 1950
    }]
  }, {
    "name": "Marcie Ocon",
    "importance": "highest",
    "loadUnits": 1,
    "serviceTimeMin": 2,
    "location": {
      "address": "45419 10th St W, Lancaster, CA 93534, USA"
    },
    "timeWindows": [{
      "startMin": 390,
      "stopMin": 1830
    }]
  }, {
    "name": "Earlene Saur",
    "loadUnits": 2,
    "serviceTimeMin": 0,
    "location": {
      "address": "44924 5th St E, Lancaster, CA 93535, USA"
    },
    "timeWindows": [{
      "startMin": 510,
      "stopMin": 1950
    }]
  }, {
    "name": "Clayton Hervey",
    "loadUnits": 1,
    "serviceTimeMin": 2,
    "location": {
      "address": "425 E Ave H 11, Lancaster, CA 93535, USA"
    },
    "timeWindows": [{
      "startMin": 510,
      "stopMin": 1950
    }]
  }, {
    "name": "Earnestine Harnett",
    "loadUnits": 1,
    "serviceTimeMin": 0,
    "location": {
      "address": "Earnestine Harnett's front door",
      "lat": 34.66239,
      "lng": -118.18351
    },
    "timeWindows": [{
      "startMin": 510,
      "stopMin": 1950
    }]
  }, {
    "name": "Nelson Lufkin",
    "loadUnits": 3,
    "serviceTimeMin": 0,
    "location": {
    "address": "43420 22nd St W, Lancaster, CA 93536, USA"
    },
    "timeWindows": [{
      "startMin": 510,
      "stopMin": 1950
    }]
  }, {
    "name": "Jerri Ertl",
    "loadUnits": 3,
    "serviceTimeMin": 2,
    "location": {
      "address": "44044 36th St W, Lancaster, CA 93536, USA"
    },
    "timeWindows": [{
      "startMin": 475,
      "stopMin": 1920
    }]
  }]
}